…
In this project I will be working with the
`2022_LoL_esports_match_data_from_OraclesElixir_20220228` data provided
by RIOT. The first thing needed to do is understand the way our data is
constructed. I will do this by displaying a tibble of the data and a
simple summary.

``` r
Lol_match_data_2022
```

    ## # A tibble: 30,528 x 123
    ##    gameid datacompleteness url   league  year split playoffs date               
    ##    <chr>  <chr>            <chr> <chr>  <dbl> <chr>    <dbl> <dttm>             
    ##  1 ESPOR~ complete         <NA>  LCK CL  2022 Spri~        0 2022-01-10 07:44:08
    ##  2 ESPOR~ complete         <NA>  LCK CL  2022 Spri~        0 2022-01-10 07:44:08
    ##  3 ESPOR~ complete         <NA>  LCK CL  2022 Spri~        0 2022-01-10 07:44:08
    ##  4 ESPOR~ complete         <NA>  LCK CL  2022 Spri~        0 2022-01-10 07:44:08
    ##  5 ESPOR~ complete         <NA>  LCK CL  2022 Spri~        0 2022-01-10 07:44:08
    ##  6 ESPOR~ complete         <NA>  LCK CL  2022 Spri~        0 2022-01-10 07:44:08
    ##  7 ESPOR~ complete         <NA>  LCK CL  2022 Spri~        0 2022-01-10 07:44:08
    ##  8 ESPOR~ complete         <NA>  LCK CL  2022 Spri~        0 2022-01-10 07:44:08
    ##  9 ESPOR~ complete         <NA>  LCK CL  2022 Spri~        0 2022-01-10 07:44:08
    ## 10 ESPOR~ complete         <NA>  LCK CL  2022 Spri~        0 2022-01-10 07:44:08
    ## # ... with 30,518 more rows, and 115 more variables: game <dbl>, patch <dbl>,
    ## #   participantid <dbl>, side <chr>, position <chr>, playername <chr>,
    ## #   playerid <chr>, teamname <chr>, teamid <chr>, champion <chr>, ban1 <chr>,
    ## #   ban2 <chr>, ban3 <chr>, ban4 <chr>, ban5 <chr>, gamelength <dbl>,
    ## #   result <dbl>, kills <dbl>, deaths <dbl>, assists <dbl>, teamkills <dbl>,
    ## #   teamdeaths <dbl>, doublekills <dbl>, triplekills <dbl>, quadrakills <dbl>,
    ## #   pentakills <dbl>, firstblood <dbl>, firstbloodkill <dbl>, ...
…
